<?xml version="1.0" encoding="UTF-8" standalone="no"?>
<!--suppress XmlUnusedNamespaceDeclaration -->
<svg
   xmlns:dc="http://purl.org/dc/elements/1.1/"
   xmlns:cc="http://creativecommons.org/ns#"
   xmlns:rdf="http://www.w3.org/1999/02/22-rdf-syntax-ns#"
   xmlns:svg="http://www.w3.org/2000/svg"
   xmlns="http://www.w3.org/2000/svg"
   xmlns:sodipodi="http://sodipodi.sourceforge.net/DTD/sodipodi-0.dtd"
   xmlns:inkscape="http://www.inkscape.org/namespaces/inkscape"
   id="b9bf6650-716f-405e-b16b-128ee0039b2f"
   data-name="Layer 1"
   width="150"
   height="150"
   viewBox="0 0 500 500"
   version="1.1"
   sodipodi:docname="book.svg"
   inkscape:version="0.92.4 (5da689c313, 2019-01-14)">
  <metadata
     id="metadata51">
    <rdf:RDF>
      <cc:Work
         rdf:about="">
        <dc:format>image/svg+xml</dc:format>
        <dc:type
           rdf:resource="http://purl.org/dc/dcmitype/StillImage" />
        <dc:title>Books</dc:title>
      </cc:Work>
    </rdf:RDF>
  </metadata>
  <defs
     id="defs49" />
  <sodipodi:namedview
     pagecolor="#ffffff"
     bordercolor="#666666"
     borderopacity="1"
     objecttolerance="10"
     gridtolerance="10"
     guidetolerance="10"
     inkscape:pageopacity="0"
     inkscape:pageshadow="2"
     inkscape:window-width="2560"
     inkscape:window-height="1361"
     id="namedview47"
     showgrid="false"
     inkscape:zoom="0.82811186"
     inkscape:cx="-388.1523"
     inkscape:cy="380.45217"
     inkscape:window-x="-9"
     inkscape:window-y="-9"
     inkscape:window-maximized="1"
     inkscape:current-layer="b9bf6650-716f-405e-b16b-128ee0039b2f"
     units="px"
     borderlayer="false"
     inkscape:pagecheckerboard="false"
     scale-x="1" />
  <title
     id="title2">Books</title>
  <path
     d="m 482.29753,500 q -35.98026,-2.77898 -69.18908,-4.7275 l 8.52536,-8.41236 c -2.95918,-0.48665 -15.78243,4.37997 -15.78243,4.37997 l 10.85046,-24.33307 c -14.796,0.9733 -21.7008,25.79306 -21.7008,25.79306 l -16.76888,-8.27324 8.25455,9.36683 c -67.74733,-3.51208 -126.20691,-4.60813 -175.34845,-4.35672 l 7.29685,-7.20011 c -2.95915,-0.48665 -15.78241,4.37996 -15.78241,4.37996 l 10.85041,-24.33307 c -14.79603,0.97334 -21.70081,25.79306 -21.70081,25.79306 l -16.76881,-8.27324 8.74287,9.92098 a 984.27998,485.61467 0 0 0 -100.635212,3.99837 c 7.28115,-11.19115 32.708252,-21.94927 32.708252,-21.94927 -19.551018,3.00093 -29.722382,7.88995 -34.986972,12.42182 a 396.10038,195.42423 0 0 1 21.177352,-67.65788 c 0,0 -39.456054,43.79953 -33.537644,72.99921 l 0.750935,5.18687 C 34.926918,497.36563 17.702468,500 17.702468,500 Z"
     id="path16"
     inkscape:connector-curvature="0"
     style="fill:#3f3d56;stroke-width:0.68215346" />
  <g
     id="g3741"
     transform="matrix(0.73795047,0,0,0.73795047,28.576597,-28.229069)">
    <path
       style="fill:#3f3d56;stroke-width:1.33097589"
       inkscape:connector-curvature="0"
       id="path8"
       d="M 378.20889,114.6222 A 18.243327,18.243327 0 1 1 396.45221,96.378873 18.264236,18.264236 0 0 1 378.20889,114.6222 Z m 0,-33.446093 a 15.202765,15.202765 0 1 0 15.20277,15.202766 15.219709,15.219709 0 0 0 -15.20277,-15.202766 z" />
    <path
       style="fill:#3f3d56;stroke-width:1.33097589"
       inkscape:connector-curvature="0"
       id="path10"
       d="m 546.87801,538.04447 h -30.01204 v -30.01198 h 30.01204 z m -27.70339,-2.30861 h 25.39478 v -25.39471 h -25.39482 z" />
    <path
       style="fill:#3f3d56;stroke-width:1.33097589"
       inkscape:connector-curvature="0"
       id="path12"
       d="m 73.696347,464.99486 -20.47066,-21.94703 21.94703,-20.47072 20.47066,21.94709 z m -17.20776,-21.83351 17.32132,18.57057 18.57056,-17.3213 -17.32132,-18.57056 z" />
    <circle
       style="opacity:0.3;fill:#4285f4;stroke-width:1.33097589"
       id="circle18"
       r="211.31848"
       cy="353.94028"
       cx="319.11023" />
    <polygon
       transform="matrix(1.3309759,0,0,1.3309759,-378.88682,-29.19307)"
       style="fill:#4285f4"
       id="polygon20"
       points="509.965,398.782 614.268,276.156 459.223,85.873 353.51,214.137 " />
    <polygon
       transform="matrix(1.3309759,0,0,1.3309759,-378.88682,-29.19307)"
       style="opacity:0.1"
       id="polygon22"
       points="509.965,398.782 614.268,276.156 459.223,85.873 353.51,214.137 " />
    <path
       style="fill:#f2f2f2;stroke-width:1.33097589"
       inkscape:connector-curvature="0"
       id="path24"
       d="m 97.254697,257.69482 v 0 A 70.716557,70.716557 0 0 1 108.72658,242.37734 L 237.95581,111.36565 c 0,0 45.02435,-7.50406 54.40442,15.00806 L 127.27095,261.44683 Z" />
    <path
       style="fill:#4285f4;stroke-width:1.33097589"
       inkscape:connector-curvature="0"
       id="path26"
       d="M 90.688657,254.8808 282.04216,547.53909 c 0,0 18.76011,13.13212 37.5203,5.62806 L 515.606,420.90807 307.36833,105.73759 119.76688,252.06677 Z" />
    <rect
       style="fill:#3f3d56;stroke-width:1.33097589"
       id="rect28"
       transform="rotate(-35.7003)"
       height="3.0402951"
       width="147.86076"
       y="288.66882"
       x="-5.6055112" />
    <rect
       style="fill:#3f3d56;stroke-width:1.33097589"
       id="rect30"
       transform="rotate(-33.48132)"
       height="285.65421"
       width="3.0405078"
       y="314.7272"
       x="-16.608501" />
    <rect
       style="fill:#3f3d56;stroke-width:1.33097589"
       id="rect32"
       transform="rotate(-36.34406)"
       height="3.04128"
       width="158.34157"
       y="614.5434"
       x="-34.390583" />
    <rect
       style="fill:#3f3d56;stroke-width:1.33097589"
       id="rect34"
       transform="rotate(-34.83794)"
       height="285.7084"
       width="3.0394697"
       y="302.87595"
       x="159.88115" />
    <rect
       style="fill:#3f3d56;stroke-width:1.33097589"
       id="rect36"
       transform="rotate(-42.54484)"
       height="1.8749456"
       width="201.49171"
       y="253.99739"
       x="-86.688576" />
    <rect
       style="fill:#3f3d56;stroke-width:1.33097589"
       id="rect38"
       transform="rotate(-41.43847)"
       height="1.8768491"
       width="206.95598"
       y="260.79297"
       x="-78.772537" />
    <rect
       style="fill:#3f3d56;stroke-width:1.33097589"
       id="rect40"
       transform="rotate(-39.81273)"
       height="1.877022"
       width="209.67224"
       y="265.36215"
       x="-68.434166" />
  </g>
</svg>
